…
The following objects are masked from ‘package:base’:

    intersect, setdiff, setequal, union

Loading required package: permute
Loading required package: lattice
This is vegan 2.5-5
Warning message:
In POMadj(.$dbh_cm, .$pom_m) :
  POMs >1.7 m are outside the calibration data and result in extrapolated nonsense, no correction applied
Warning message:
In POMadj(.$dbh_cm, .$pom) :
  POMs >1.7 m are outside the calibration data and result in extrapolated nonsense, no correction applied
# A tibble: 5,381 x 86
   name  plot_design plotcode plot_id country first_census_da… last_census_date
   <chr> <chr>       <fct>    <chr>   <chr>   <chr>            <chr>           
 1 Bete… <NA>        CBN-1    LWR1    Republ… 2015             2016            
 2 Bete… <NA>        CBN-2    LWR2    Republ… 2015             2017            
 3 Bete… <NA>        CBN-3    LWR3    Republ… 2016             2016            
 4 Bete… <NA>        CBN-4    LLR1    Republ… 2015             2017            
 5 Bete… <NA>        CBN-5    LLR2    Republ… 2015             2016            
 6 Bete… <NA>        CBN-6    LLR3    Republ… 2016             2016            
 7 Mike… <NA>        DKS001   KAT1    DRC     2010             2014            
 8 Krug… <NA>        SSM-001  1       South … <NA>             2008            
 9 Mike… <NA>        DKS002   KAT2    DRC     2010             2012            
10 Mike… <NA>        DKS003   KAT3    DRC     2010             2012            
11 Nham… <NA>        MGR-001  1       Mozamb… 2006             2006            
12 Nham… <NA>        MGR-002  2       Mozamb… 2006             2009            
13 Nham… <NA>        MGR-003  3       Mozamb… 2006             2010            
14 Nham… <NA>        MGR-004  4       Mozamb… 2006             2009            
15 Nham… <NA>        MGR-005  5       Mozamb… 2006             2010            
16 Nham… <NA>        MGR-006  6       Mozamb… 2006             2010            
17 Nham… <NA>        MGR-007  7       Mozamb… 2006             2010            
18 Nham… <NA>        MGR-008  8       Mozamb… 2006             2010            
19 Nham… <NA>        MGR-009  9       Mozamb… 2006             2007            
20 Nham… <NA>        MGR-010  10      Mozamb… 2006             2007            
21 Nham… <NA>        MGR-011  11      Mozamb… 2006             2007            
22 Nham… <NA>        MGR-012  12      Mozamb… 2006             2007            
23 Nham… <NA>        MGR-013  13      Mozamb… 2006             2010            
24 Nham… <NA>        MGR-014  14      Mozamb… 2006             2010            
25 Nham… <NA>        MGR-015  15      Mozamb… 2006             2010            
26 Kilw… <NA>        TKW-001  F12     Tanzan… 2010/2011        2010/2011       
27 Kilw… <NA>        TKW-002  F13     Tanzan… 2010/2011        2010/2011       
28 Kilw… <NA>        TKW-003  F15     Tanzan… 2010/2011        2010/2011       
29 Kilw… <NA>        TKW-004  F5      Tanzan… 2010/2011        2010/2011       
30 Kilw… <NA>        TKW-005  F6      Tanzan… 2010/2011        2010/2011       
31 Kilw… <NA>        TKW-006  F7      Tanzan… 2010/2011        2010/2011       
32 Kilw… <NA>        TKW-007  S3      Tanzan… 2010/2011        2010/2011       
33 Kilw… <NA>        TKW-008  S4      Tanzan… 2010/2011        2010/2011       
34 Kilw… <NA>        TKW-009  S5      Tanzan… 2010/2011        2010/2011       
35 Kilw… <NA>        TKW-010  S7      Tanzan… 2010/2011        2010/2011       
36 Kilw… <NA>        TKW-011  S9      Tanzan… 2010/2011        2010/2011       
37 Kilw… <NA>        TKW-012  W1      Tanzan… 2010/2011        2010/2011       
38 Kilw… <NA>        TKW-013  W11     Tanzan… 2010/2011        2010/2011       
39 Kilw… <NA>        TKW-014  W12     Tanzan… 2010/2011        2010/2011       
40 Kilw… <NA>        TKW-015  W13     Tanzan… 2010/2011        2010/2011       
41 Kilw… <NA>        TKW-016  W14     Tanzan… 2010/2011        2010/2011       
42 Kilw… <NA>        TKW-017  W16     Tanzan… 2010/2011        2010/2011       
43 Kilw… <NA>        TKW-018  W17     Tanzan… 2010/2011        2010/2011       
44 Kilw… <NA>        TKW-019  W18     Tanzan… 2010/2011        2010/2011       
45 Kilw… <NA>        TKW-020  W19     Tanzan… 2010/2011        2010/2011       
46 Kilw… <NA>        TKW-021  W26     Tanzan… 2010/2011        2010/2011       
47 Kilw… <NA>        TKW-022  W29     Tanzan… 2010/2011        2010/2011       
48 Kilw… <NA>        TKW-023  W6      Tanzan… 2010/2011        2010/2011       
49 Kilw… <NA>        TKW-024  W7      Tanzan… 2010/2011        2010/2011       
50 Kilw… <NA>        TKW-025  W9      Tanzan… 2010/2011        2010/2011       
# … with 5,331 more rows, and 79 more variables: all_dates <chr>,
#   n_censuses <chr>, pi <chr>, other_authors <chr>, area_of_plot <dbl>,
#   planar_area_of_plot <chr>, shape_of_plot <chr>, plot_width <chr>,
#   plot_length <chr>, plot_diameter <chr>, totalplotedge <chr>, nested <chr>,
#   n1_min_tree_diameter <dbl>, n1_min_tree_height <chr>, n2_plot_id <chr>,
#   n2_min_tree_diameter <dbl>, n2_min_tree_height <chr>, n2_shape <chr>,
#   n2_plot_width <chr>, n2_plot_length <chr>, n2_plot_diameter <chr>,
#   n2_total_area <dbl>, n3_plot_id <chr>, n3_min_tree_diameter <dbl>,
#   n3_min_tree_height <chr>, n3_shape <chr>, n3_plot_width <chr>,
…
